Exploring the Boxing Bouts Dataset
…
This output shows that there is a lot of missing data encoded as NAs. For instance, the height_B attribute is missing for 252,787 observations in the dataset. In addition, there are several mistakes in the data. For example, we see that the minimum age is -74, which is definitely not a valid age. We also observe some unreasonable values for height, such as 255 cm, which is over 8 feet tall.

Dealing with Missing Values

Because there are so many NAs in the dataset, it would not be valid to impute missing values (replace with substituted values such as the mean), because while this process wouldnt affect the mean, it would greatly lower the standard deviation. As a result, we should simply restrict the values of a numeric variable to a reasonable range, which gets rid of NAs at the same time. For example, it doesnt make sense to analyze boxers under the age of 14-15 in professional fights. So, if we set the lower bound for age to 14, we deal with erroneous values such as -74 as well as NAs. We can take a closer look at the data to determine the upper bound for age. Using the filter operation, we can restrict the output to only entities (rows) where boxers are over the age of 60. Using the select operation, we can hone in on the desired attribute(s) (in this case, age_A and age_B columns) so that its easier to look at.

dat %>% 
  filter(age_A > 60 | age_B > 60) %>%
  select(age_A, age_B)

## # A tibble: 24 x 2
##    age_A age_B
##    <int> <int>
##  1    18   102
##  2    19   101
##  3    17    99
##  4    18   126
##  5    21   227
##  6    29  2015
##  7  1818    24
##  8    24  1817
##  9  1817    23
## 10    21   106
## # ... with 14 more rows
…
}) %>%
  # combine the 10 resulting data frames into one
  purrr::reduce(bind_rows)
result_df

## # A tibble: 2,000 x 6
##    observed_label fold  prob_positive_rf predicted_label~ prob_positive_r~
##    <fct>          <chr>            <dbl> <chr>                       <dbl>
##  1 win_A          Fold~            0.625 win_B                       0.459
##  2 win_A          Fold~            0.188 win_A                       0.242
##  3 win_A          Fold~            0.250 win_A                       0.297
##  4 win_A          Fold~            0.188 win_A                       0.285
##  5 win_A          Fold~            0.250 win_A                       0.248
##  6 win_A          Fold~            0.875 win_B                       0.816
##  7 win_A          Fold~            0.375 win_A                       0.291
##  8 win_A          Fold~            0.562 win_B                       0.473
##  9 win_A          Fold~            0.438 win_A                       0.354
## 10 win_A          Fold~            0.375 win_A                       0.535
## # ... with 1,990 more rows, and 1 more variable: predicted_label_rf2 <chr>
…
